<?xml version="1.0" encoding="utf-8"?>
<svg width="57px" height="57px" viewBox="0 0 57 57" version="1.1" xmlns:xlink="http://www.w3.org/1999/xlink" xmlns="http://www.w3.org/2000/svg">
  <desc>Created with Lunacy</desc>
  <path d="M55.7503 26.0774L53.0483 26.0774L53.0483 13.7225C53.0483 10.7605 50.6242 8.35085 47.6444 8.35085L43.9849 8.35085L40.24 1.65777C39.6692 0.63489 38.583 0 37.405 0C36.8559 0 36.3112 0.140752 35.8302 0.406042L21.4579 8.35069L5.40392 8.35069C2.42414 8.35069 0 10.7604 0 13.7223L0 50.6076C0 53.5696 2.42414 55.9793 5.40392 55.9793L47.6444 55.9793C50.6242 55.9793 53.0483 53.5696 53.0483 50.6076L53.0483 39.775L55.7503 39.775L55.7503 26.0774ZM47.6444 10.4994C49.3088 10.4994 50.6684 11.7563 50.851 13.3646L46.7894 13.3646L45.1876 10.4994L47.6444 10.4994ZM36.8818 2.28396C37.3887 2.00146 38.0708 2.19904 38.3506 2.70087L44.3165 13.3636L16.8365 13.3636L36.8818 2.28396ZM50.8867 50.6076C50.8867 52.3846 49.4319 53.8307 47.6442 53.8307L5.40392 53.8307C3.61629 53.8307 2.16147 52.3846 2.16147 50.6076L2.16147 13.7225C2.16147 11.9456 3.61629 10.4994 5.40392 10.4994L17.5714 10.4994L12.3879 13.3648L6.07945 13.3648C5.48178 13.3648 4.99863 13.846 4.99863 14.4391C4.99863 15.0322 5.48178 15.5135 6.07945 15.5135L8.5004 15.5135L47.9913 15.5135L50.8867 15.5135L50.8867 26.0784L42.9829 26.0784C39.3125 26.0784 36.3253 29.048 36.3253 32.6963L36.3253 33.1584C36.3253 36.8069 39.3127 39.7762 42.9829 39.7762L50.8867 39.7762L50.8867 50.6076ZM53.5886 37.6265L53.0483 37.6265L42.9829 37.6265C40.5036 37.6265 38.4868 35.6218 38.4868 33.1572L38.4868 32.6951C38.4868 30.2306 40.5035 28.2258 42.9829 28.2258L53.0483 28.2258L53.5886 28.2258L53.5886 37.6265ZM46.2933 33.0144C46.2933 34.3252 45.2255 35.3865 43.907 35.3865C42.5884 35.3865 41.5207 34.325 41.5207 33.0144C41.5207 31.7039 42.5886 30.6424 43.907 30.6424C45.2256 30.6422 46.2933 31.7047 46.2933 33.0144Z" transform="translate(0.25 0.25)" id="Shape" fill="#A08500" stroke="none" />
</svg>